{
  "books": [
    {
      "bookName": "book1",
      "sheets": [
        {
          "sheetName": "default",
          "sheetID": 1,
          "cells": {
            "A3": {
              "name": "A3",
              "content": {
                "formatsOfContent": [],
                "formulaRepresentation": "\u003d 4+-2",
                "contentType": "default"
              }
            },
            "A4": {
              "name": "A4",
              "content": {
                "formatsOfContent": [],
                "formulaRepresentation": "\u003d 2+A3",
                "contentType": "default"
              }
            }
          },
          "maxRow": 4,
          "maxCol": "A"
        }
      ]
    }
  ]
}