{
  "books": [
    {
      "bookName": "book1",
      "sheets": [
        {
          "sheetName": "default",
          "sheetID": 1,
          "cells": {
            "A1": {
              "name": "A1",
              "content": {
                "formatsOfContent": [
                  [
                    "decimal",
                    "2"
                  ]
                ],
                "formulaRepresentation": "1235",
                "contentType": "default"
              }
            }
          },
          "maxRow": 1,
          "maxCol": "A"
        }
      ]
    }
  ]
}